{
  "clientId": "portal",
  "name": "BIWG portal",
  "description": "",
  "rootUrl": "https://your-portal.domain.ch",
  "adminUrl": "",
  "baseUrl": "https://your-portal.domain.ch",
  "surrogateAuthRequired": false,
  "enabled": true,
  "alwaysDisplayInConsole": true,
  "clientAuthenticatorType": "client-secret",
  "secret": "client-secret-please-regenerate",
  "redirectUris": ["https://your-portal.domain.ch/auth/oidc/callback/*"],
  "webOrigins": [],
  "notBefore": 0,
  "bearerOnly": false,
  "consentRequired": false,
  "standardFlowEnabled": true,
  "implicitFlowEnabled": false,
  "directAccessGrantsEnabled": false,
  "serviceAccountsEnabled": false,
  "publicClient": false,
  "frontchannelLogout": false,
  "protocol": "openid-connect",
  "attributes": {
    "saml.multivalued.roles": "false",
    "saml.force.post.binding": "false",
    "frontchannel.logout.session.required": "false",
    "post.logout.redirect.uris": "+",
    "oauth2.device.authorization.grant.enabled": "false",
    "backchannel.logout.revoke.offline.tokens": "false",
    "saml.server.signature.keyinfo.ext": "false",
    "use.refresh.tokens": "true",
    "oidc.ciba.grant.enabled": "false",
    "backchannel.logout.session.required": "true",
    "client_credentials.use_refresh_token": "false",
    "saml.client.signature": "false",
    "require.pushed.authorization.requests": "false",
    "saml.allow.ecp.flow": "false",
    "saml.assertion.signature": "false",
    "id.token.as.detached.signature": "false",
    "client.secret.creation.time": "1655737945",
    "saml.encrypt": "false",
    "saml.server.signature": "false",
    "exclude.session.state.from.auth.response": "false",
    "saml.artifact.binding": "false",
    "saml_force_name_id_format": "false",
    "tls.client.certificate.bound.access.tokens": "false",
    "acr.loa.map": "{}",
    "saml.authnstatement": "false",
    "display.on.consent.screen": "false",
    "token.response.type.bearer.lower-case": "false",
    "saml.onetimeuse.condition": "false"
  },
  "authenticationFlowBindingOverrides": {},
  "fullScopeAllowed": true,
  "nodeReRegistrationTimeout": -1,
  "protocolMappers": [
    {
      "name": "given name",
      "protocol": "openid-connect",
      "protocolMapper": "oidc-usermodel-property-mapper",
      "consentRequired": false,
      "config": {
        "userinfo.token.claim": "true",
        "user.attribute": "firstName",
        "id.token.claim": "true",
        "access.token.claim": "true",
        "claim.name": "given_name",
        "jsonType.label": "String"
      }
    },
    {
      "name": "full name",
      "protocol": "openid-connect",
      "protocolMapper": "oidc-full-name-mapper",
      "consentRequired": false,
      "config": {
        "id.token.claim": "true",
        "access.token.claim": "true",
        "userinfo.token.claim": "true"
      }
    },
    {
      "name": "family name",
      "protocol": "openid-connect",
      "protocolMapper": "oidc-usermodel-property-mapper",
      "consentRequired": false,
      "config": {
        "userinfo.token.claim": "true",
        "user.attribute": "lastName",
        "id.token.claim": "true",
        "access.token.claim": "true",
        "claim.name": "family_name",
        "jsonType.label": "String"
      }
    },
    {
      "name": "linkedAffiliation",
      "protocol": "openid-connect",
      "protocolMapper": "oidc-usermodel-attribute-mapper",
      "consentRequired": false,
      "config": {
        "userinfo.token.claim": "true",
        "multivalued": "true",
        "user.attribute": "linkedAffiliation",
        "id.token.claim": "false",
        "access.token.claim": "false",
        "claim.name": "linkedAffiliation",
        "jsonType.label": "String"
      }
    },
    {
      "name": "username",
      "protocol": "openid-connect",
      "protocolMapper": "oidc-usermodel-property-mapper",
      "consentRequired": false,
      "config": {
        "userinfo.token.claim": "true",
        "user.attribute": "username",
        "id.token.claim": "true",
        "access.token.claim": "true",
        "claim.name": "preferred_username",
        "jsonType.label": "String"
      }
    },
    {
      "name": "linkedAffiliationUniqueID",
      "protocol": "openid-connect",
      "protocolMapper": "oidc-usermodel-attribute-mapper",
      "consentRequired": false,
      "config": {
        "aggregate.attrs": "false",
        "userinfo.token.claim": "true",
        "multivalued": "true",
        "user.attribute": "linkedAffiliationUniqueID",
        "id.token.claim": "false",
        "access.token.claim": "false",
        "claim.name": "linkedAffiliationUniqueID"
      }
    },
    {
      "name": "email",
      "protocol": "openid-connect",
      "protocolMapper": "oidc-usermodel-property-mapper",
      "consentRequired": false,
      "config": {
        "userinfo.token.claim": "true",
        "user.attribute": "email",
        "id.token.claim": "true",
        "access.token.claim": "true",
        "claim.name": "email",
        "jsonType.label": "String"
      }
    }
  ],
  "defaultClientScopes": ["web-origins", "acr", "profile", "roles", "email"],
  "optionalClientScopes": ["address", "phone", "offline_access", "microprofile-jwt"],
  "access": {
    "view": true,
    "configure": true,
    "manage": true
  }
}
